
Start-Date: 2024-01-08  02:00:00
Commandline: apt install tumbler
Install: tumbler:amd64 (4.18.0-1), tumbler-common:amd64 (4.18.0-1, automatic), libtumbler-1-0:amd64 (4.18.0-1, automatic), libxfce4util7:amd64 (4.18.1-2, automatic), libxfce4util-common:amd64 (4.18.1-2, automatic)
End-Date: 2024-01-08  02:00:01
