
Start-Date: 2024-01-08  01:38:07
Commandline: apt upgrade
Install: linux-headers-6.1.0-17-amd64:amd64 (6.1.69-1, automatic), linux-image-6.1.0-17-amd64:amd64 (6.1.69-1, automatic), linux-headers-6.1.0-17-common:amd64 (6.1.69-1, automatic)
Upgrade: linux-compiler-gcc-12-x86:amd64 (6.1.67-1, 6.1.69-1), linux-headers-amd64:amd64 (6.1.67-1, 6.1.69-1), linux-kbuild-6.1:amd64 (6.1.67-1, 6.1.69-1), linux-image-amd64:amd64 (6.1.67-1, 6.1.69-1), mx-packageinstaller-pkglist:amd64 (23.12.8mx23, 24.01.2mx23), linux-libc-dev:amd64 (6.1.67-1, 6.1.69-1)
End-Date: 2024-01-08  01:38:39

Start-Date: 2024-01-08  01:39:56
Commandline: apt install rtkit
Install: rtkit:amd64 (0.13-5)
End-Date: 2024-01-08  01:39:57

Start-Date: 2024-01-08  01:40:31
Commandline: apt install papirus-icon-theme
Install: papirus-icon-theme:amd64 (20230601-0.1~mx23+1)
End-Date: 2024-01-08  01:41:19
