
Start-Date: 2024-02-07  08:45:08
Commandline: apt upgrade
Install: libgdk-pixbuf-xlib-2.0-0:amd64 (2.40.2-2, automatic), libpipewire-0.3-common:amd64 (1.0.0-1~mx23+1, automatic), libconfig++9v5:amd64 (1.5-0.4, automatic), liblua5.4-0:amd64 (5.4.4-3, automatic), libgdk-pixbuf2.0-0:amd64 (2.40.2-2, automatic), linux-headers-6.1.0-17-amd64:amd64 (6.1.69-1, automatic), libxml++2.6-2v5:amd64 (2.40.1-3, automatic), socat:amd64 (1.7.4.4-2, automatic), libroc0.3:amd64 (0.3.0+dfsg-2~mx23+1, automatic), linux-image-6.1.0-17-amd64:amd64 (6.1.69-1, automatic), libuv1:amd64 (1.44.2-1, automatic), linux-headers-6.1.0-17-common:amd64 (6.1.69-1, automatic), libffado2:amd64 (2.4.7-1, automatic)
Upgrade: libperl5.36:amd64 (5.36.0-7, 5.36.0-7+deb12u1), iso-snapshot-cli:amd64 (23.11.02, 24.01.01), libcups2:amd64 (2.4.2-3+deb12u4, 2.4.2-3+deb12u5), libcurl4:amd64 (7.88.1-10+deb12u4, 7.88.1-10+deb12u5), firefox-l10n-xpi-hi-in:amd64 (119.0.1~mozillabinaries-1mx23+1, 122.0.1~mozillabinaries-1mx23+1), libnghttp2-14:amd64 (1.52.0-1, 1.52.0-1+deb12u1), libcurl3-gnutls:amd64 (7.88.1-10+deb12u4, 7.88.1-10+deb12u5), openssh-client:amd64 (1:9.2p1-2+deb12u1, 1:9.2p1-2+deb12u2), firefox-l10n-xpi-de:amd64 (119.0.1~mozillabinaries-1mx23+1, 122.0.1~mozillabinaries-1mx23+1), firefox-l10n-xpi-el:amd64 (119.0.1~mozillabinaries-1mx23+1, 122.0.1~mozillabinaries-1mx23+1), firefox-l10n-xpi-fr:amd64 (119.0.1~mozillabinaries-1mx23+1, 122.0.1~mozillabinaries-1mx23+1), firefox-l10n-xpi-hr:amd64 (119.0.1~mozillabinaries-1mx23+1, 122.0.1~mozillabinaries-1mx23+1), firefox-l10n-xpi-hu:amd64 (119.0.1~mozillabinaries-1mx23+1, 122.0.1~mozillabinaries-1mx23+1), firefox-l10n-xpi-id:amd64 (119.0.1~mozillabinaries-1mx23+1, 122.0.1~mozillabinaries-1mx23+1), firefox-l10n-xpi-it:amd64 (119.0.1~mozillabinaries-1mx23+1, 122.0.1~mozillabinaries-1mx23+1), firefox-l10n-xpi-ja:amd64 (119.0.1~mozillabinaries-1mx23+1, 122.0.1~mozillabinaries-1mx23+1), firefox-l10n-xpi-nl:amd64 (119.0.1~mozillabinaries-1mx23+1, 122.0.1~mozillabinaries-1mx23+1), firefox-l10n-xpi-ru:amd64 (119.0.1~mozillabinaries-1mx23+1, 122.0.1~mozillabinaries-1mx23+1), perl:amd64 (5.36.0-7, 5.36.0-7+deb12u1), tzdata:amd64 (2023c-5, 2023c-5+deb12u1), cups-common:amd64 (2.4.2-3+deb12u4, 2.4.2-3+deb12u5), xserver-xorg-core:amd64 (2:21.1.7-3+deb12u2, 2:21.1.7-3+deb12u5), pipewire-pulse:amd64 (0.3.65-3, 1.0.0-1~mx23+1), mx-tweak:amd64 (23.11.01mx23, 24.01.01mx23), bluetooth:amd64 (5.66-1, 5.66-1+deb12u1), libminizip1:amd64 (1.1-8+b1, 1.1-8+deb12u1), libmutter-11-0:amd64 (43.6-1~deb12u1, 43.8-0+deb12u1), libgs10-common:amd64 (10.0.0~dfsg-11+deb12u2, 10.0.0~dfsg-11+deb12u3), bluez-obexd:amd64 (5.66-1, 5.66-1+deb12u1), cups-client:amd64 (2.4.2-3+deb12u4, 2.4.2-3+deb12u5), cups-ppdc:amd64 (2.4.2-3+deb12u4, 2.4.2-3+deb12u5), gnome-session-bin:amd64 (43.0-1, 43.0-1+deb12u1), cups-daemon:amd64 (2.4.2-3+deb12u4, 2.4.2-3+deb12u5), libjavascriptcoregtk-4.1-0:amd64 (2.42.1-1~deb12u1, 2.42.4-1~deb12u1), linux-compiler-gcc-12-x86:amd64 (6.1.55-1, 6.1.69-1), libtiff6:amd64 (4.5.0-6, 4.5.0-6+deb12u1), libgs10:amd64 (10.0.0~dfsg-11+deb12u2, 10.0.0~dfsg-11+deb12u3), gir1.2-javascriptcoregtk-4.1:amd64 (2.42.1-1~deb12u1, 2.42.4-1~deb12u1), firefox-l10n-xpi-pt-br:amd64 (119.0.1~mozillabinaries-1mx23+1, 122.0.1~mozillabinaries-1mx23+1), gir1.2-webkit2-4.1:amd64 (2.42.1-1~deb12u1, 2.42.4-1~deb12u1), libssh-gcrypt-4:amd64 (0.10.5-2, 0.10.6-0+deb12u1), linux-headers-amd64:amd64 (6.1.55-1, 6.1.69-1), pipewire:amd64 (0.3.65-3, 1.0.0-1~mx23+1), mx-docs:amd64 (20230728+1, 20240117), libqpdf29:amd64 (11.3.0-1, 11.3.0-1+deb12u1), mutter-common:amd64 (43.6-1~deb12u1, 43.8-0+deb12u1), gnome-shell:amd64 (43.6-1~deb12u2, 43.9-0+deb12u1), linux-kbuild-6.1:amd64 (6.1.55-1, 6.1.69-1), cups-ipp-utils:amd64 (2.4.2-3+deb12u4, 2.4.2-3+deb12u5), firefox-l10n-xpi-zh-tw:amd64 (119.0.1~mozillabinaries-1mx23+1, 122.0.1~mozillabinaries-1mx23+1), firefox:amd64 (119.0.1~mozillabinaries-1mx23+1, 122.0.1~mozillabinaries-1mx23+1), libc6:amd64 (2.36-9+deb12u3, 2.36-9+deb12u4), libc6:i386 (2.36-9+deb12u3, 2.36-9+deb12u4), locales:amd64 (2.36-9+deb12u3, 2.36-9+deb12u4), ghostscript:amd64 (10.0.0~dfsg-11+deb12u2, 10.0.0~dfsg-11+deb12u3), linux-image-amd64:amd64 (6.1.55-1, 6.1.69-1), libgstreamer-plugins-bad1.0-0:amd64 (1.22.0-4+deb12u2, 1.22.0-4+deb12u5), libspa-0.2-bluetooth:amd64 (0.3.65-3, 1.0.0-1~mx23+1), xserver-common:amd64 (2:21.1.7-3+deb12u2, 2:21.1.7-3+deb12u5), gir1.2-mutter-11:amd64 (43.6-1~deb12u1, 43.8-0+deb12u1), gstreamer1.0-pipewire:amd64 (0.3.65-3, 1.0.0-1~mx23+1), base-files:amd64 (12.4+deb12u2, 12.4+deb12u4), pipewire-bin:amd64 (0.3.65-3, 1.0.0-1~mx23+1), gnome-shell-common:amd64 (43.6-1~deb12u2, 43.9-0+deb12u1), python3-distro-info:amd64 (1.5, 1.5+deb12u1), libjavascriptcoregtk-4.0-18:amd64 (2.42.1-1~deb12u1, 2.42.4-1~deb12u1), mx-packageinstaller-pkglist:amd64 (23.11.03mx23, 24.02.1mx23), libwebkit2gtk-4.1-0:amd64 (2.42.1-1~deb12u1, 2.42.4-1~deb12u1), distro-info-data:amd64 (0.58, 0.58+deb12u1), mx-remaster:amd64 (23.10.01mx23, 24.01.01mx23), libbluetooth3:amd64 (5.66-1, 5.66-1+deb12u1), libc-dev-bin:amd64 (2.36-9+deb12u3, 2.36-9+deb12u4), localize-repo-mx:amd64 (22.09.01, 23.11.01), mx-snapshot:amd64 (23.11.02, 24.01.01), perl-base:amd64 (5.36.0-7, 5.36.0-7+deb12u1), libc-l10n:amd64 (2.36-9+deb12u3, 2.36-9+deb12u4), libspa-0.2-modules:amd64 (0.3.65-3, 1.0.0-1~mx23+1), mx-installer:amd64 (23.10.07mx23, 24.01.02mx23), gir1.2-gst-plugins-bad-1.0:amd64 (1.22.0-4+deb12u2, 1.22.0-4+deb12u5), gnome-session:amd64 (43.0-1, 43.0-1+deb12u1), cups-core-drivers:amd64 (2.4.2-3+deb12u4, 2.4.2-3+deb12u5), libc-bin:amd64 (2.36-9+deb12u3, 2.36-9+deb12u4), firefox-l10n-xpi-sv-se:amd64 (119.0.1~mozillabinaries-1mx23+1, 122.0.1~mozillabinaries-1mx23+1), mx-packageinstaller:amd64 (23.11.03, 24.1), firefox-l10n-xpi-es-es:amd64 (119.0.1~mozillabinaries-1mx23+1, 122.0.1~mozillabinaries-1mx23+1), ddm-mx:amd64 (23.09.01, 24.01.01), libc6-dev:amd64 (2.36-9+deb12u3, 2.36-9+deb12u4), system-keyboard-qt:amd64 (23.04.05mx23, 24.01.01mx23), mx-system:amd64 (23.10.02mx23, 24.02.01mx23), bluez:amd64 (5.66-1, 5.66-1+deb12u1), libgnutls30:amd64 (3.7.9-2, 3.7.9-2+deb12u1), gnome-characters:amd64 (43.1-1, 43.1-1+deb12u1), cups:amd64 (2.4.2-3+deb12u4, 2.4.2-3+deb12u5), libpipewire-0.3-modules:amd64 (0.3.65-3, 1.0.0-1~mx23+1), libgs-common:amd64 (10.0.0~dfsg-11+deb12u2, 10.0.0~dfsg-11+deb12u3), perl-modules-5.36:amd64 (5.36.0-7, 5.36.0-7+deb12u1), wireplumber:amd64 (0.4.13-1, 0.4.16-1~mx23+1), cups-server-common:amd64 (2.4.2-3+deb12u4, 2.4.2-3+deb12u5), libde265-0:amd64 (1.0.11-1, 1.0.11-1+deb12u1), intel-microcode:amd64 (3.20230808.1~deb12u1, 3.20231114.1~deb12u1), gnome-session-common:amd64 (43.0-1, 43.0-1+deb12u1), formatusb:amd64 (23.11.01, 24.01.01), libwireplumber-0.4-0:amd64 (0.4.13-1, 0.4.16-1~mx23+1), linux-libc-dev:amd64 (6.1.55-1, 6.1.69-1), libpipewire-0.3-0:amd64 (0.3.65-3, 1.0.0-1~mx23+1)
End-Date: 2024-02-07  08:47:43

Start-Date: 2024-02-07  08:48:06
Commandline: apt autoremove
Remove: libpango1.0-0:amd64 (1.50.12+ds-1)
End-Date: 2024-02-07  08:48:06

Start-Date: 2024-02-07  08:49:51
Commandline: /usr/sbin/synaptic
Requested-By: demo (1000)
Remove: linux-headers-6.1.0-10-amd64:amd64 (6.1.38-2), linux-image-6.1.0-10-amd64:amd64 (6.1.38-2), linux-headers-6.1.0-10-common:amd64 (6.1.38-2)
End-Date: 2024-02-07  08:49:54

Start-Date: 2024-02-07  08:50:58
Commandline: apt install lazpaint-gtk2
Install: lazpaint-gtk2:amd64 (7.2.2-2)
End-Date: 2024-02-07  08:50:59

Start-Date: 2024-02-07  08:51:48
Commandline: apt install fonts-noto-core
Install: fonts-noto-core:amd64 (20201225-1)
End-Date: 2024-02-07  08:51:49

Start-Date: 2024-02-07  08:52:03
Commandline: apt install mx-locale
Install: mx-locale:amd64 (24.1.15)
End-Date: 2024-02-07  08:52:04
