
Start-Date: 2024-02-07  08:55:37
Commandline: apt remove firefox*
Remove: firefox-l10n-xpi-hi-in:amd64 (122.0.1~mozillabinaries-1mx23+1), firefox-l10n-xpi-de:amd64 (122.0.1~mozillabinaries-1mx23+1), firefox-l10n-xpi-el:amd64 (122.0.1~mozillabinaries-1mx23+1), firefox-l10n-xpi-fr:amd64 (122.0.1~mozillabinaries-1mx23+1), firefox-l10n-xpi-hr:amd64 (122.0.1~mozillabinaries-1mx23+1), firefox-l10n-xpi-hu:amd64 (122.0.1~mozillabinaries-1mx23+1), firefox-l10n-xpi-id:amd64 (122.0.1~mozillabinaries-1mx23+1), firefox-l10n-xpi-it:amd64 (122.0.1~mozillabinaries-1mx23+1), firefox-l10n-xpi-ja:amd64 (122.0.1~mozillabinaries-1mx23+1), firefox-l10n-xpi-nl:amd64 (122.0.1~mozillabinaries-1mx23+1), firefox-l10n-xpi-ru:amd64 (122.0.1~mozillabinaries-1mx23+1), firefox-l10n-xpi-pt-br:amd64 (122.0.1~mozillabinaries-1mx23+1), firefox-l10n-xpi-zh-tw:amd64 (122.0.1~mozillabinaries-1mx23+1), firefox:amd64 (122.0.1~mozillabinaries-1mx23+1), firefox-l10n-xpi-sv-se:amd64 (122.0.1~mozillabinaries-1mx23+1), firefox-l10n-xpi-es-es:amd64 (122.0.1~mozillabinaries-1mx23+1)
End-Date: 2024-02-07  08:55:37

Start-Date: 2024-02-07  08:56:38
Commandline: apt install firefox-esr-l10n-ar firefox-esr-l10n-bn firefox-esr firefox-esr-l10n-de firefox-esr-l10n-es-es firefox-esr-l10n-el firefox-esr-l10n-fr firefox-esr-l10n-hi-in firefox-esr-l10n-hr firefox-esr-l10n-hu firefox-esr-l10n-id firefox-esr-l10n-it firefox-esr-l10n-ja firefox-esr-l10n-nl firefox-esr-l10n-pl firefox-esr-l10n-pt-br firefox-esr-l10n-ru firefox-esr-l10n-sv-se firefox-esr-l10n-ur firefox-esr-l10n-zh-tw
Install: firefox-esr-l10n-sv-se:amd64 (115.7.0esr-1~deb12u1), firefox-esr-l10n-es-es:amd64 (115.7.0esr-1~deb12u1), firefox-esr-l10n-hi-in:amd64 (115.7.0esr-1~deb12u1), firefox-esr-l10n-ar:amd64 (115.7.0esr-1~deb12u1), firefox-esr-l10n-bn:amd64 (115.7.0esr-1~deb12u1), firefox-esr-l10n-de:amd64 (115.7.0esr-1~deb12u1), firefox-esr-l10n-el:amd64 (115.7.0esr-1~deb12u1), firefox-esr-l10n-fr:amd64 (115.7.0esr-1~deb12u1), firefox-esr-l10n-hr:amd64 (115.7.0esr-1~deb12u1), firefox-esr-l10n-hu:amd64 (115.7.0esr-1~deb12u1), firefox-esr-l10n-id:amd64 (115.7.0esr-1~deb12u1), firefox-esr-l10n-it:amd64 (115.7.0esr-1~deb12u1), firefox-esr-l10n-ja:amd64 (115.7.0esr-1~deb12u1), firefox-esr-l10n-nl:amd64 (115.7.0esr-1~deb12u1), firefox-esr-l10n-pl:amd64 (115.7.0esr-1~deb12u1), firefox-esr-l10n-ru:amd64 (115.7.0esr-1~deb12u1), firefox-esr-l10n-ur:amd64 (115.7.0esr-1~deb12u1), firefox-esr-l10n-pt-br:amd64 (115.7.0esr-1~deb12u1), firefox-esr-l10n-zh-tw:amd64 (115.7.0esr-1~deb12u1), firefox-esr:amd64 (115.7.0esr-1~deb12u1)
End-Date: 2024-02-07  08:56:45

Start-Date: 2024-02-07  08:58:03
Commandline: apt autoremove
Remove: libgdk-pixbuf-xlib-2.0-0:amd64 (2.40.2-2), libgdk-pixbuf2.0-0:amd64 (2.40.2-2)
End-Date: 2024-02-07  08:58:03
