
Start-Date: 2024-02-09  00:34:43
Commandline: apt install firefox-esr-l10n-ar firefox-esr-l10n-bn firefox-esr-l10n-ur
Install: firefox-esr-l10n-ar:amd64 (115.7.0esr-1~deb12u1), firefox-esr-l10n-bn:amd64 (115.7.0esr-1~deb12u1), firefox-esr-l10n-ur:amd64 (115.7.0esr-1~deb12u1)
End-Date: 2024-02-09  00:34:44

Start-Date: 2024-02-09  01:01:26
Commandline: apt install light-locker
Install: light-locker:amd64 (1.8.0-3)
End-Date: 2024-02-09  01:01:27
