
Start-Date: 2024-02-09  00:27:34
Commandline: apt upgrade
Install: libpipewire-0.3-common:amd64 (1.0.0-1~mx23+1, automatic), linux-headers-6.1.0-17-amd64:amd64 (6.1.69-1, automatic), socat:amd64 (1.7.4.4-2, automatic), linux-image-6.1.0-17-amd64:amd64 (6.1.69-1, automatic), linux-headers-6.1.0-17-common:amd64 (6.1.69-1, automatic)
Upgrade: libperl5.36:amd64 (5.36.0-7, 5.36.0-7+deb12u1), iso-snapshot-cli:amd64 (23.11, 24.01.01), libcups2:amd64 (2.4.2-3+deb12u4, 2.4.2-3+deb12u5), libnghttp2-14:amd64 (1.52.0-1, 1.52.0-1+deb12u1), libcurl3-gnutls:amd64 (7.88.1-10+deb12u4, 7.88.1-10+deb12u5), openssh-client:amd64 (1:9.2p1-2+deb12u1, 1:9.2p1-2+deb12u2), perl:amd64 (5.36.0-7, 5.36.0-7+deb12u1), firefox-esr-l10n-sv-se:amd64 (115.4.0esr-1~deb12u1, 115.7.0esr-1~deb12u1), tzdata:amd64 (2023c-5, 2023c-5+deb12u1), firefox-esr-l10n-es-es:amd64 (115.4.0esr-1~deb12u1, 115.7.0esr-1~deb12u1), cups-common:amd64 (2.4.2-3+deb12u4, 2.4.2-3+deb12u5), xserver-xorg-core:amd64 (2:21.1.7-3+deb12u2, 2:21.1.7-3+deb12u5), bluetooth:amd64 (5.66-1, 5.66-1+deb12u1), libgs10-common:amd64 (10.0.0~dfsg-11+deb12u2, 10.0.0~dfsg-11+deb12u3), cups-client:amd64 (2.4.2-3+deb12u4, 2.4.2-3+deb12u5), cups-ppdc:amd64 (2.4.2-3+deb12u4, 2.4.2-3+deb12u5), cups-daemon:amd64 (2.4.2-3+deb12u4, 2.4.2-3+deb12u5), libjavascriptcoregtk-4.1-0:amd64 (2.42.1-1~deb12u1, 2.42.5-1~deb12u1), linux-compiler-gcc-12-x86:amd64 (6.1.55-1, 6.1.69-1), libtiff6:amd64 (4.5.0-6, 4.5.0-6+deb12u1), libgs10:amd64 (10.0.0~dfsg-11+deb12u2, 10.0.0~dfsg-11+deb12u3), libssh-gcrypt-4:amd64 (0.10.5-2, 0.10.6-0+deb12u1), linux-headers-amd64:amd64 (6.1.55-1, 6.1.69-1), mx-docs:amd64 (20230728+1, 20240117), libqpdf29:amd64 (11.3.0-1, 11.3.0-1+deb12u1), firefox-esr-l10n-hi-in:amd64 (115.4.0esr-1~deb12u1, 115.7.0esr-1~deb12u1), linux-kbuild-6.1:amd64 (6.1.55-1, 6.1.69-1), cups-ipp-utils:amd64 (2.4.2-3+deb12u4, 2.4.2-3+deb12u5), libc6:amd64 (2.36-9+deb12u3, 2.36-9+deb12u4), libc6:i386 (2.36-9+deb12u3, 2.36-9+deb12u4), locales:amd64 (2.36-9+deb12u3, 2.36-9+deb12u4), ghostscript:amd64 (10.0.0~dfsg-11+deb12u2, 10.0.0~dfsg-11+deb12u3), linux-image-amd64:amd64 (6.1.55-1, 6.1.69-1), libgstreamer-plugins-bad1.0-0:amd64 (1.22.0-4+deb12u2, 1.22.0-4+deb12u5), xserver-common:amd64 (2:21.1.7-3+deb12u2, 2:21.1.7-3+deb12u5), base-files:amd64 (12.4+deb12u2, 12.4+deb12u4), firefox-esr-l10n-de:amd64 (115.4.0esr-1~deb12u1, 115.7.0esr-1~deb12u1), firefox-esr-l10n-el:amd64 (115.4.0esr-1~deb12u1, 115.7.0esr-1~deb12u1), firefox-esr-l10n-fr:amd64 (115.4.0esr-1~deb12u1, 115.7.0esr-1~deb12u1), firefox-esr-l10n-hr:amd64 (115.4.0esr-1~deb12u1, 115.7.0esr-1~deb12u1), firefox-esr-l10n-hu:amd64 (115.4.0esr-1~deb12u1, 115.7.0esr-1~deb12u1), firefox-esr-l10n-id:amd64 (115.4.0esr-1~deb12u1, 115.7.0esr-1~deb12u1), firefox-esr-l10n-it:amd64 (115.4.0esr-1~deb12u1, 115.7.0esr-1~deb12u1), firefox-esr-l10n-ja:amd64 (115.4.0esr-1~deb12u1, 115.7.0esr-1~deb12u1), firefox-esr-l10n-nl:amd64 (115.4.0esr-1~deb12u1, 115.7.0esr-1~deb12u1), firefox-esr-l10n-pl:amd64 (115.4.0esr-1~deb12u1, 115.7.0esr-1~deb12u1), firefox-esr-l10n-ru:amd64 (115.4.0esr-1~deb12u1, 115.7.0esr-1~deb12u1), mx-packageinstaller-pkglist:amd64 (23.11.03mx23, 24.02.1mx23), libwebkit2gtk-4.1-0:amd64 (2.42.1-1~deb12u1, 2.42.5-1~deb12u1), firefox-esr-l10n-pt-br:amd64 (115.4.0esr-1~deb12u1, 115.7.0esr-1~deb12u1), mx-remaster:amd64 (23.10.01mx23, 24.01.01mx23), libc-dev-bin:amd64 (2.36-9+deb12u3, 2.36-9+deb12u4), localize-repo-mx:amd64 (22.09.01, 23.11.01), mx-snapshot:amd64 (23.11, 24.01.01), perl-base:amd64 (5.36.0-7, 5.36.0-7+deb12u1), libc-l10n:amd64 (2.36-9+deb12u3, 2.36-9+deb12u4), libspa-0.2-modules:amd64 (0.3.65-3, 1.0.0-1~mx23+1), mx-installer:amd64 (23.10.07mx23, 24.01.02mx23), gir1.2-gst-plugins-bad-1.0:amd64 (1.22.0-4+deb12u2, 1.22.0-4+deb12u5), cups-core-drivers:amd64 (2.4.2-3+deb12u4, 2.4.2-3+deb12u5), libc-bin:amd64 (2.36-9+deb12u3, 2.36-9+deb12u4), mx-packageinstaller:amd64 (23.11.02, 24.1), firefox-esr-l10n-zh-tw:amd64 (115.4.0esr-1~deb12u1, 115.7.0esr-1~deb12u1), ddm-mx:amd64 (23.09.01, 24.01.01), libc6-dev:amd64 (2.36-9+deb12u3, 2.36-9+deb12u4), system-keyboard-qt:amd64 (23.04.05mx23, 24.01.01mx23), mx-system:amd64 (23.10.02mx23, 24.02.01mx23), bluez:amd64 (5.66-1, 5.66-1+deb12u1), libgnutls30:amd64 (3.7.9-2, 3.7.9-2+deb12u1), cups:amd64 (2.4.2-3+deb12u4, 2.4.2-3+deb12u5), libgs-common:amd64 (10.0.0~dfsg-11+deb12u2, 10.0.0~dfsg-11+deb12u3), perl-modules-5.36:amd64 (5.36.0-7, 5.36.0-7+deb12u1), firefox-esr:amd64 (115.4.0esr-1~deb12u1, 115.7.0esr-1~deb12u1), cups-server-common:amd64 (2.4.2-3+deb12u4, 2.4.2-3+deb12u5), libde265-0:amd64 (1.0.11-1, 1.0.11-1+deb12u1), intel-microcode:amd64 (3.20230808.1~deb12u1, 3.20231114.1~deb12u1), formatusb:amd64 (23.11.01, 24.01.01), linux-libc-dev:amd64 (6.1.55-1, 6.1.69-1), libpipewire-0.3-0:amd64 (0.3.65-3, 1.0.0-1~mx23+1)
End-Date: 2024-02-09  00:29:54

Start-Date: 2024-02-09  00:30:11
Commandline: apt autoremove
Remove: linux-headers-6.1.0-12-amd64:amd64 (6.1.52-1), linux-headers-6.1.0-12-common:amd64 (6.1.52-1), linux-image-6.1.0-12-amd64:amd64 (6.1.52-1)
End-Date: 2024-02-09  00:30:15

Start-Date: 2024-02-09  00:30:40
Commandline: apt install fonts-noto-core
Install: fonts-noto-core:amd64 (20201225-1)
End-Date: 2024-02-09  00:30:41

Start-Date: 2024-02-09  00:31:09
Commandline: apt install mx-locale
Install: mx-locale:amd64 (24.1.15)
End-Date: 2024-02-09  00:31:09

Start-Date: 2024-02-09  00:31:42
Commandline: apt install lazpaint-gtk2
Install: lazpaint-gtk2:amd64 (7.2.2-2)
End-Date: 2024-02-09  00:31:43
