
Start-Date: 2024-02-08  08:17:05
Commandline: apt install firefox-esr-l10n-ar firefox-esr-l10n-bn firefox-esr firefox-esr-l10n-de firefox-esr-l10n-es-es firefox-esr-l10n-el firefox-esr-l10n-fr firefox-esr-l10n-hi-in firefox-esr-l10n-hr firefox-esr-l10n-hu firefox-esr-l10n-id firefox-esr-l10n-it firefox-esr-l10n-ja firefox-esr-l10n-nl firefox-esr-l10n-pl firefox-esr-l10n-pt-br firefox-esr-l10n-ru firefox-esr-l10n-sv-se firefox-esr-l10n-ur firefox-esr-l10n-zh-tw
Install: firefox-esr-l10n-sv-se:amd64 (115.7.0esr-1~deb12u1), firefox-esr-l10n-es-es:amd64 (115.7.0esr-1~deb12u1), firefox-esr-l10n-hi-in:amd64 (115.7.0esr-1~deb12u1), firefox-esr-l10n-ar:amd64 (115.7.0esr-1~deb12u1), firefox-esr-l10n-bn:amd64 (115.7.0esr-1~deb12u1), firefox-esr-l10n-de:amd64 (115.7.0esr-1~deb12u1), firefox-esr-l10n-el:amd64 (115.7.0esr-1~deb12u1), firefox-esr-l10n-fr:amd64 (115.7.0esr-1~deb12u1), libevent-2.1-7:amd64 (2.1.12-stable-8, automatic), firefox-esr-l10n-hr:amd64 (115.7.0esr-1~deb12u1), firefox-esr-l10n-hu:amd64 (115.7.0esr-1~deb12u1), firefox-esr-l10n-id:amd64 (115.7.0esr-1~deb12u1), firefox-esr-l10n-it:amd64 (115.7.0esr-1~deb12u1), firefox-esr-l10n-ja:amd64 (115.7.0esr-1~deb12u1), firefox-esr-l10n-nl:amd64 (115.7.0esr-1~deb12u1), firefox-esr-l10n-pl:amd64 (115.7.0esr-1~deb12u1), firefox-esr-l10n-ru:amd64 (115.7.0esr-1~deb12u1), firefox-esr-l10n-ur:amd64 (115.7.0esr-1~deb12u1), firefox-esr-l10n-pt-br:amd64 (115.7.0esr-1~deb12u1), firefox-esr-l10n-zh-tw:amd64 (115.7.0esr-1~deb12u1), firefox-esr:amd64 (115.7.0esr-1~deb12u1)
End-Date: 2024-02-08  08:17:12

Start-Date: 2024-02-08  08:17:27
Commandline: apt autoremove
Remove: libgdk-pixbuf-xlib-2.0-0:amd64 (2.40.2-2), libgdk-pixbuf2.0-0:amd64 (2.40.2-2)
End-Date: 2024-02-08  08:17:27

Start-Date: 2024-02-08  08:43:44
Commandline: apt install xarchiver
Install: xarchiver:amd64 (1:0.5.4.20-2)
End-Date: 2024-02-08  08:43:44
