
Start-Date: 2024-02-08  08:06:46
Commandline: apt upgrade
Install: libgdk-pixbuf-xlib-2.0-0:amd64 (2.40.2-2, automatic), libpipewire-0.3-common:amd64 (1.0.0-1~mx23+1, automatic), libgdk-pixbuf2.0-0:amd64 (2.40.2-2, automatic), linux-headers-6.1.0-17-amd64:amd64 (6.1.69-1, automatic), linux-image-6.1.0-17-amd64:amd64 (6.1.69-1, automatic), linux-headers-6.1.0-17-common:amd64 (6.1.69-1, automatic)
Upgrade: libperl5.36:amd64 (5.36.0-7, 5.36.0-7+deb12u1), iso-snapshot-cli:amd64 (23.11.02, 24.01.01), libcups2:amd64 (2.4.2-3+deb12u4, 2.4.2-3+deb12u5), firefox-l10n-xpi-hi-in:amd64 (119.0.1~mozillabinaries-1mx23+1, 122.0.1~mozillabinaries-1mx23+1), libnghttp2-14:amd64 (1.52.0-1, 1.52.0-1+deb12u1), libcurl3-gnutls:amd64 (7.88.1-10+deb12u4, 7.88.1-10+deb12u5), openssh-client:amd64 (1:9.2p1-2+deb12u1, 1:9.2p1-2+deb12u2), firefox-l10n-xpi-de:amd64 (119.0.1~mozillabinaries-1mx23+1, 122.0.1~mozillabinaries-1mx23+1), firefox-l10n-xpi-el:amd64 (119.0.1~mozillabinaries-1mx23+1, 122.0.1~mozillabinaries-1mx23+1), firefox-l10n-xpi-fr:amd64 (119.0.1~mozillabinaries-1mx23+1, 122.0.1~mozillabinaries-1mx23+1), firefox-l10n-xpi-hr:amd64 (119.0.1~mozillabinaries-1mx23+1, 122.0.1~mozillabinaries-1mx23+1), firefox-l10n-xpi-hu:amd64 (119.0.1~mozillabinaries-1mx23+1, 122.0.1~mozillabinaries-1mx23+1), firefox-l10n-xpi-id:amd64 (119.0.1~mozillabinaries-1mx23+1, 122.0.1~mozillabinaries-1mx23+1), firefox-l10n-xpi-it:amd64 (119.0.1~mozillabinaries-1mx23+1, 122.0.1~mozillabinaries-1mx23+1), firefox-l10n-xpi-ja:amd64 (119.0.1~mozillabinaries-1mx23+1, 122.0.1~mozillabinaries-1mx23+1), firefox-l10n-xpi-nl:amd64 (119.0.1~mozillabinaries-1mx23+1, 122.0.1~mozillabinaries-1mx23+1), firefox-l10n-xpi-ru:amd64 (119.0.1~mozillabinaries-1mx23+1, 122.0.1~mozillabinaries-1mx23+1), perl:amd64 (5.36.0-7, 5.36.0-7+deb12u1), tzdata:amd64 (2023c-5, 2023c-5+deb12u1), cups-common:amd64 (2.4.2-3+deb12u4, 2.4.2-3+deb12u5), xserver-xorg-core:amd64 (2:21.1.7-3+deb12u2, 2:21.1.7-3+deb12u5), bluetooth:amd64 (5.66-1, 5.66-1+deb12u1), libgs10-common:amd64 (10.0.0~dfsg-11+deb12u2, 10.0.0~dfsg-11+deb12u3), cups-client:amd64 (2.4.2-3+deb12u4, 2.4.2-3+deb12u5), cups-ppdc:amd64 (2.4.2-3+deb12u4, 2.4.2-3+deb12u5), cups-daemon:amd64 (2.4.2-3+deb12u4, 2.4.2-3+deb12u5), libjavascriptcoregtk-4.1-0:amd64 (2.42.1-1~deb12u1, 2.42.4-1~deb12u1), linux-compiler-gcc-12-x86:amd64 (6.1.55-1, 6.1.69-1), libtiff6:amd64 (4.5.0-6, 4.5.0-6+deb12u1), libgs10:amd64 (10.0.0~dfsg-11+deb12u2, 10.0.0~dfsg-11+deb12u3), firefox-l10n-xpi-pt-br:amd64 (119.0.1~mozillabinaries-1mx23+1, 122.0.1~mozillabinaries-1mx23+1), libssh-gcrypt-4:amd64 (0.10.5-2, 0.10.6-0+deb12u1), linux-headers-amd64:amd64 (6.1.55-1, 6.1.69-1), mx-docs:amd64 (20230728+1, 20240117), libqpdf29:amd64 (11.3.0-1, 11.3.0-1+deb12u1), linux-kbuild-6.1:amd64 (6.1.55-1, 6.1.69-1), cups-ipp-utils:amd64 (2.4.2-3+deb12u4, 2.4.2-3+deb12u5), firefox-l10n-xpi-zh-tw:amd64 (119.0.1~mozillabinaries-1mx23+1, 122.0.1~mozillabinaries-1mx23+1), firefox:amd64 (119.0.1~mozillabinaries-1mx23+1, 122.0.1~mozillabinaries-1mx23+1), libc6:amd64 (2.36-9+deb12u3, 2.36-9+deb12u4), libc6:i386 (2.36-9+deb12u3, 2.36-9+deb12u4), locales:amd64 (2.36-9+deb12u3, 2.36-9+deb12u4), ghostscript:amd64 (10.0.0~dfsg-11+deb12u2, 10.0.0~dfsg-11+deb12u3), linux-image-amd64:amd64 (6.1.55-1, 6.1.69-1), libgstreamer-plugins-bad1.0-0:amd64 (1.22.0-4+deb12u2, 1.22.0-4+deb12u5), xserver-common:amd64 (2:21.1.7-3+deb12u2, 2:21.1.7-3+deb12u5), base-files:amd64 (12.4+deb12u2, 12.4+deb12u4), libwebkit2gtk-4.1-0:amd64 (2.42.1-1~deb12u1, 2.42.4-1~deb12u1), mx-remaster:amd64 (23.10.01mx23, 24.01.01mx23), libbluetooth3:amd64 (5.66-1, 5.66-1+deb12u1), localize-repo-mx:amd64 (22.09.01, 23.11.01), mx-snapshot:amd64 (23.11.02, 24.01.01), perl-base:amd64 (5.36.0-7, 5.36.0-7+deb12u1), libc-l10n:amd64 (2.36-9+deb12u3, 2.36-9+deb12u4), libspa-0.2-modules:amd64 (0.3.65-3, 1.0.0-1~mx23+1), mx-installer:amd64 (23.10.07mx23, 24.01.02mx23), gir1.2-gst-plugins-bad-1.0:amd64 (1.22.0-4+deb12u2, 1.22.0-4+deb12u5), cups-core-drivers:amd64 (2.4.2-3+deb12u4, 2.4.2-3+deb12u5), libc-bin:amd64 (2.36-9+deb12u3, 2.36-9+deb12u4), firefox-l10n-xpi-sv-se:amd64 (119.0.1~mozillabinaries-1mx23+1, 122.0.1~mozillabinaries-1mx23+1), firefox-l10n-xpi-es-es:amd64 (119.0.1~mozillabinaries-1mx23+1, 122.0.1~mozillabinaries-1mx23+1), ddm-mx:amd64 (23.09.01, 24.01.01), system-keyboard-qt:amd64 (23.04.05mx23, 24.01.01mx23), mx-system:amd64 (23.10.02mx23, 24.02.01mx23), bluez:amd64 (5.66-1, 5.66-1+deb12u1), libgnutls30:amd64 (3.7.9-2, 3.7.9-2+deb12u1), cups:amd64 (2.4.2-3+deb12u4, 2.4.2-3+deb12u5), libgs-common:amd64 (10.0.0~dfsg-11+deb12u2, 10.0.0~dfsg-11+deb12u3), perl-modules-5.36:amd64 (5.36.0-7, 5.36.0-7+deb12u1), cups-server-common:amd64 (2.4.2-3+deb12u4, 2.4.2-3+deb12u5), libde265-0:amd64 (1.0.11-1, 1.0.11-1+deb12u1), intel-microcode:amd64 (3.20230808.1~deb12u1, 3.20231114.1~deb12u1), formatusb:amd64 (23.11.01, 24.01.01), linux-libc-dev:amd64 (6.1.55-1, 6.1.69-1), libpipewire-0.3-0:amd64 (0.3.65-3, 1.0.0-1~mx23+1)
End-Date: 2024-02-08  08:09:09

Start-Date: 2024-02-08  08:09:58
Commandline: apt autoremove
Remove: libpango1.0-0:amd64 (1.50.12+ds-1)
End-Date: 2024-02-08  08:09:58

Start-Date: 2024-02-08  08:11:03
Commandline: apt install fonts-noto-core
Install: fonts-noto-core:amd64 (20201225-1)
End-Date: 2024-02-08  08:11:04

Start-Date: 2024-02-08  08:11:29
Commandline: apt install mx-locale
Install: mx-locale:amd64 (24.1.15)
End-Date: 2024-02-08  08:11:29

Start-Date: 2024-02-08  08:15:41
Commandline: apt remove firefox*
Remove: firefox-l10n-xpi-hi-in:amd64 (122.0.1~mozillabinaries-1mx23+1), firefox-l10n-xpi-de:amd64 (122.0.1~mozillabinaries-1mx23+1), firefox-l10n-xpi-el:amd64 (122.0.1~mozillabinaries-1mx23+1), firefox-l10n-xpi-fr:amd64 (122.0.1~mozillabinaries-1mx23+1), firefox-l10n-xpi-hr:amd64 (122.0.1~mozillabinaries-1mx23+1), firefox-l10n-xpi-hu:amd64 (122.0.1~mozillabinaries-1mx23+1), firefox-l10n-xpi-id:amd64 (122.0.1~mozillabinaries-1mx23+1), firefox-l10n-xpi-it:amd64 (122.0.1~mozillabinaries-1mx23+1), firefox-l10n-xpi-ja:amd64 (122.0.1~mozillabinaries-1mx23+1), firefox-l10n-xpi-nl:amd64 (122.0.1~mozillabinaries-1mx23+1), firefox-l10n-xpi-ru:amd64 (122.0.1~mozillabinaries-1mx23+1), firefox-l10n-xpi-pt-br:amd64 (122.0.1~mozillabinaries-1mx23+1), firefox-l10n-xpi-zh-tw:amd64 (122.0.1~mozillabinaries-1mx23+1), firefox:amd64 (122.0.1~mozillabinaries-1mx23+1), firefox-l10n-xpi-sv-se:amd64 (122.0.1~mozillabinaries-1mx23+1), firefox-l10n-xpi-es-es:amd64 (122.0.1~mozillabinaries-1mx23+1)
End-Date: 2024-02-08  08:15:42
